{
  "dbs": {
	  "db1":{
		  "ip":"127.0.0.1",
			"port":"3306",
			"dbname":"azaadi",
			"user":"root",
			"password":"11235879"
    }
  },
  "elastic":{
    "ip":"http://127.0.0.1",
    "port":"9200"
  },
  "bs" :{
    "ip":"0.0.0.0",
    "port":"11300",
    "tube":"azaadi"

  }
}
